simulation/qsim/simon_says.msim.vcd
$comment
	File created using the following command:
		vcd file simon_says.msim.vcd -direction
$end
$date
	Sat Dec 03 15:38:38 2016
$end
$version
	ModelSim Version 10.1d
$end
$timescale
	1ps
$end
$scope module counter_vlg_vec_tst $end
$var reg 1 ! CLEAR $end
$var reg 1 " CLK $end
$var reg 1 # ENABLE $end
$var wire 1 $ Q [1] $end
$var wire 1 % Q [0] $end
$var wire 1 & sampler $end
$scope module i1 $end
$var wire 1 ' gnd $end
$var wire 1 ( vcc $end
$var wire 1 ) unknown $end
$var tri1 1 * devclrn $end
$var tri1 1 + devpor $end
$var tri1 1 , devoe $end
$var wire 1 - Q[0]~output_o $end
$var wire 1 . Q[1]~output_o $end
$var wire 1 / CLK~input_o $end
$var wire 1 0 CLK~inputclkctrl_outclk $end
$var wire 1 1 ENABLE~input_o $end
$var wire 1 2 Pre_Q[0]~0_combout $end
$var wire 1 3 CLEAR~input_o $end
$var wire 1 4 CLEAR~inputclkctrl_outclk $end
$var wire 1 5 Pre_Q[1]~1_combout $end
$var wire 1 6 Pre_Q [1] $end
$var wire 1 7 Pre_Q [0] $end
$upscope $end
$upscope $end
$enddefinitions $end
#0
$dumpvars
0!
0"
1#
x%
x$
x&
0'
1(
x)
1*
1+
1,
x-
x.
0/
x0
11
x2
03
x4
x5
07
06
$end
#173
04
00
#491
05
#3334
0.
0$
#3355
0-
0%
#3553
12
#10000
1"
0&
#10730
1/
#10917
10
#13310
17
#13739
02
#13744
15
#16655
1-
1%
#20000
0"
1&
#20836
0/
#21009
00
#30000
1"
0&
#30730
1/
#30917
10
#33310
07
16
#33719
12
#36634
1.
1$
#36665
0-
0%
#40000
0"
1&
#40836
0/
#41009
00
#50000
1"
0&
#50730
1/
#50917
10
#53310
17
#53728
05
#53739
02
#56655
1-
1%
#60000
0"
1&
#60836
0/
#61009
00
#70000
1"
0&
#70730
1/
#70917
10
#73310
07
06
#73719
12
#76644
0.
0$
#76665
0-
0%
#80000
0"
1&
#80836
0/
#81009
00
#90000
1"
0&
#90730
1/
#90917
10
#93310
17
#93739
02
#93744
15
#96655
1-
1%
#100000
0"
1&
#100836
0/
#101009
00
#110000
1"
0&
#110730
1/
#110917
10
#113310
07
16
#113719
12
#116634
1.
1$
#116665
0-
0%
#120000
0"
1&
#120836
0/
#121009
00
#130000
1"
0&
#130730
1/
#130917
10
#133310
17
#133728
05
#133739
02
#136655
1-
1%
#140000
0"
1&
#140836
0/
#141009
00
#150000
1"
0&
#150730
1/
#150917
10
#153310
07
06
#153719
12
#156644
0.
0$
#156665
0-
0%
#160000
0"
1&
#160836
0/
#161009
00
#170000
1"
0&
#170730
1/
#170917
10
#173310
17
#173739
02
#173744
15
#176655
1-
1%
#180000
0"
1&
#180836
0/
#181009
00
#190000
1"
0&
#190730
1/
#190917
10
#193310
07
16
#193719
12
#196634
1.
1$
#196665
0-
0%
#200000
0"
1&
#200836
0/
#201009
00
#210000
1"
0&
#210730
1/
#210917
10
#213310
17
#213728
05
#213739
02
#216655
1-
1%
#220000
0"
1&
#220836
0/
#221009
00
#230000
1"
0&
#230730
1/
#230917
10
#233310
07
06
#233719
12
#236644
0.
0$
#236665
0-
0%
#240000
0"
1&
#240836
0/
#241009
00
#250000
1"
0&
#250730
1/
#250917
10
#253310
17
#253739
02
#253744
15
#256655
1-
1%
#260000
0"
1&
#260836
0/
#261009
00
#270000
1"
0&
#270730
1/
#270917
10
#273310
07
16
#273719
12
#276634
1.
1$
#276665
0-
0%
#280000
0"
1&
#280836
0/
#281009
00
#290000
1"
0&
#290730
1/
#290917
10
#293310
17
#293728
05
#293739
02
#296655
1-
1%
#300000
0"
1&
#300836
0/
#301009
00
#310000
1"
0&
#310730
1/
#310917
10
#313310
07
06
#313719
12
#316644
0.
0$
#316665
0-
0%
#320000
0"
1&
#320836
0/
#321009
00
#330000
1"
0&
#330730
1/
#330917
10
#333310
17
#333739
02
#333744
15
#336655
1-
1%
#340000
0"
1&
#340836
0/
#341009
00
#350000
1"
0&
#350730
1/
#350917
10
#353310
07
16
#353719
12
#356634
1.
1$
#356665
0-
0%
#360000
0"
1&
#360836
0/
#361009
00
#370000
1"
0&
#370730
1/
#370917
10
#373310
17
#373728
05
#373739
02
#376655
1-
1%
#380000
0"
1&
#380836
0/
#381009
00
#390000
1"
0&
#390730
1/
#390917
10
#393310
07
06
#393719
12
#396644
0.
0$
#396665
0-
0%
#400000
0"
1&
#400836
0/
#401009
00
#410000
1"
0&
#410730
1/
#410917
10
#413310
17
#413739
02
#413744
15
#416655
1-
1%
#420000
0"
1&
#420836
0/
#421009
00
#430000
1"
0&
#430730
1/
#430917
10
#433310
07
16
#433719
12
#436634
1.
1$
#436665
0-
0%
#440000
0"
1&
#440836
0/
#441009
00
#450000
1"
0&
#450730
1/
#450917
10
#453310
17
#453728
05
#453739
02
#456655
1-
1%
#460000
0"
1&
#460836
0/
#461009
00
#470000
1"
0&
#470730
1/
#470917
10
#473310
07
06
#473719
12
#476644
0.
0$
#476665
0-
0%
#480000
0"
1&
#480836
0/
#481009
00
#490000
1"
0&
#490730
1/
#490917
10
#493310
17
#493739
02
#493744
15
#496655
1-
1%
#500000
0"
1&
#500836
0/
#501009
00
#510000
1"
0&
#510730
1/
#510917
10
#513310
07
16
#513719
12
#516634
1.
1$
#516665
0-
0%
#520000
0"
1&
#520836
0/
#521009
00
#530000
1"
0&
#530730
1/
#530917
10
#533310
17
#533728
05
#533739
02
#536655
1-
1%
#540000
0"
1&
#540836
0/
#541009
00
#550000
1"
0&
#550730
1/
#550917
10
#553310
07
06
#553719
12
#556644
0.
0$
#556665
0-
0%
#560000
0"
1&
#560836
0/
#561009
00
#570000
1"
0&
#570730
1/
#570917
10
#573310
17
#573739
02
#573744
15
#576655
1-
1%
#580000
0"
1&
#580836
0/
#581009
00
#590000
1"
0&
#590730
1/
#590917
10
#593310
07
16
#593719
12
#596634
1.
1$
#596665
0-
0%
#600000
0"
1&
#600836
0/
#601009
00
#610000
1"
0&
#610730
1/
#610917
10
#613310
17
#613728
05
#613739
02
#616655
1-
1%
#620000
0"
1&
#620836
0/
#621009
00
#630000
1"
0&
#630730
1/
#630917
10
#633310
07
06
#633719
12
#636644
0.
0$
#636665
0-
0%
#640000
0"
1&
#640836
0/
#641009
00
#650000
1"
0&
#650730
1/
#650917
10
#653310
17
#653739
02
#653744
15
#656655
1-
1%
#660000
0"
1&
#660836
0/
#661009
00
#670000
1"
0&
#670730
1/
#670917
10
#673310
07
16
#673719
12
#676634
1.
1$
#676665
0-
0%
#680000
0"
1&
#680836
0/
#681009
00
#690000
1"
0&
#690730
1/
#690917
10
#693310
17
#693728
05
#693739
02
#696655
1-
1%
#700000
0"
1&
#700836
0/
#701009
00
#710000
1"
0&
#710730
1/
#710917
10
#713310
07
06
#713719
12
#716644
0.
0$
#716665
0-
0%
#720000
0"
1&
#720836
0/
#721009
00
#730000
1"
0&
#730730
1/
#730917
10
#733310
17
#733739
02
#733744
15
#736655
1-
1%
#740000
0"
1&
#740836
0/
#741009
00
#750000
1"
0&
#750730
1/
#750917
10
#753310
07
16
#753719
12
#756634
1.
1$
#756665
0-
0%
#760000
0"
1&
#760836
0/
#761009
00
#770000
1"
0&
#770730
1/
#770917
10
#773310
17
#773728
05
#773739
02
#776655
1-
1%
#780000
0"
1&
#780836
0/
#781009
00
#790000
1"
0&
#790730
1/
#790917
10
#793310
07
06
#793719
12
#796644
0.
0$
#796665
0-
0%
#800000
0"
1&
#800836
0/
#801009
00
#810000
1"
0&
#810730
1/
#810917
10
#813310
17
#813739
02
#813744
15
#816655
1-
1%
#820000
0"
1&
#820836
0/
#821009
00
#830000
1"
0&
#830730
1/
#830917
10
#833310
07
16
#833719
12
#836634
1.
1$
#836665
0-
0%
#840000
0"
1&
#840836
0/
#841009
00
#850000
1"
0&
#850730
1/
#850917
10
#853310
17
#853728
05
#853739
02
#856655
1-
1%
#860000
0"
1&
#860836
0/
#861009
00
#870000
1"
0&
#870730
1/
#870917
10
#873310
07
06
#873719
12
#876644
0.
0$
#876665
0-
0%
#880000
0"
1&
#880836
0/
#881009
00
#890000
1"
0&
#890730
1/
#890917
10
#893310
17
#893739
02
#893744
15
#896655
1-
1%
#900000
0"
1&
#900836
0/
#901009
00
#910000
1"
0&
#910730
1/
#910917
10
#913310
07
16
#913719
12
#916634
1.
1$
#916665
0-
0%
#920000
0"
1&
#920836
0/
#921009
00
#930000
1"
0&
#930730
1/
#930917
10
#933310
17
#933728
05
#933739
02
#936655
1-
1%
#940000
0"
1&
#940836
0/
#941009
00
#950000
1"
0&
#950730
1/
#950917
10
#953310
07
06
#953719
12
#956644
0.
0$
#956665
0-
0%
#960000
0"
1&
#960836
0/
#961009
00
#970000
1"
0&
#970730
1/
#970917
10
#973310
17
#973739
02
#973744
15
#976655
1-
1%
#980000
0"
1&
#980836
0/
#981009
00
#990000
1"
0&
#990730
1/
#990917
10
#993310
07
16
#993719
12
#996634
1.
1$
#996665
0-
0%
